Interactive Learning Roadmap - Part 2 · Kim Fitter
…
                   # Add edge from environments to create functions
                   data.frame(from=19, to=25,weight=1),
                   # Add edge from dataframes to numerical indexing
                   data.frame(from=17, to=29,weight=1),
                   # Add edge from dataframes to base plots
                   data.frame(from=17, to=40, weight=1),
                   # Add edge from dataframes to summary stats
                   data.frame(from=17, to=47, weight=1),
                   # Add edge from matrices to reshape
                   data.frame(from=15, to=37,weight=1),
                   # Add edge from environments to scoping rules
                   data.frame(from=19, to=27,weight=1))
)

## # A tibble: 59 x 3
##     from    to weight
##    <dbl> <dbl>  <dbl>
##  1     1     2      1
##  2     2     3      1
##  3     3     4      1
##  4     4     5      1
##  5     5     6      1
##  6     6     7      1
##  7     7     8      1
##  8     8     9      1
##  9     9    NA      1
## 10    10    11      1
## # ... with 49 more rows
…
