Is Swimming with Sharks Dangerous? · Kim Fitter
…
## [1] "sf"         "data.frame"

# Join the basemap and sharks data
sharks_full <- left_join(sharks,world,by=c("Country"="name"))

Data Summary

Let’s take a look at summary of the joined datasets.

# View the joined datasets by descending Totals
sharks_full %>%  
      arrange(desc(Total)) 

## # A tibble: 90 x 65
##    Country Total scalerank featurecla labelrank sovereignt sov_a3 adm0_dif
##    <chr>   <int>     <int> <chr>          <dbl> <chr>      <chr>     <dbl>
##  1 USA      1407        NA <NA>              NA <NA>       <NA>         NA
##  2 Austra~   621         1 Admin-0 c~         2 Australia  AU1           1
##  3 Republ~   252        NA <NA>              NA <NA>       <NA>         NA
##  4 Brazil    104         1 Admin-0 c~         2 Brazil     BRA           0
##  5 New Ze~    51         1 Admin-0 c~         2 New Zeala~ NZ1           1
##  6 Papua ~    48         1 Admin-0 c~         2 Papua New~ PNG           0
##  7 Mascar~    42        NA <NA>              NA <NA>       <NA>         NA
##  8 Mexico     40         1 Admin-0 c~         2 Mexico     MEX           0
##  9 Bahama~    30        NA <NA>              NA <NA>       <NA>         NA
## 10 Iran       23         1 Admin-0 c~         2 Iran       IRN           0
## # ... with 80 more rows, and 57 more variables: level <dbl>, type <chr>,
## #   admin <chr>, adm0_a3 <chr>, geou_dif <dbl>, geounit <chr>,
## #   gu_a3 <chr>, su_dif <dbl>, subunit <chr>, su_a3 <chr>, brk_diff <dbl>,
## #   name_long <chr>, brk_a3 <chr>, brk_name <chr>, brk_group <chr>,
## #   abbrev <chr>, postal <chr>, formal_en <chr>, formal_fr <chr>,
## #   note_adm0 <chr>, note_brk <chr>, name_sort <chr>, name_alt <chr>,
## #   mapcolor7 <dbl>, mapcolor8 <dbl>, mapcolor9 <dbl>, mapcolor13 <dbl>,
## #   pop_est <dbl>, gdp_md_est <dbl>, pop_year <dbl>, lastcensus <dbl>,
## #   gdp_year <dbl>, economy <chr>, income_grp <chr>, wikipedia <dbl>,
## #   fips_10 <chr>, iso_a2 <chr>, iso_a3 <chr>, iso_n3 <chr>, un_a3 <chr>,
## #   wb_a2 <chr>, wb_a3 <chr>, woe_id <dbl>, adm0_a3_is <chr>,
## #   adm0_a3_us <chr>, adm0_a3_un <dbl>, adm0_a3_wb <dbl>, continent <chr>,
## #   region_un <chr>, subregion <chr>, region_wb <chr>, name_len <dbl>,
## #   long_len <dbl>, abbrev_len <dbl>, tiny <dbl>, homepart <dbl>,
## #   geometry <MULTIPOLYGON [Â°]>

It seems like some of the countries didn’t match up. Let’s extract the NA’s.

# Filter the NA countries from the join
sharks_full %>% 
      filter(is.na(scalerank))

## # A tibble: 21 x 65
##    Country Total scalerank featurecla labelrank sovereignt sov_a3 adm0_dif
##    <chr>   <int>     <int> <chr>          <dbl> <chr>      <chr>     <dbl>
##  1 USA      1407        NA <NA>              NA <NA>       <NA>         NA
##  2 Republ~   252        NA <NA>              NA <NA>       <NA>         NA
##  3 Mascar~    42        NA <NA>              NA <NA>       <NA>         NA
##  4 Bahama~    30        NA <NA>              NA <NA>       <NA>         NA
##  5 Fiji I~    22        NA <NA>              NA <NA>       <NA>         NA
##  6 Solomo~    11        NA <NA>              NA <NA>       <NA>         NA
##  7 Marsha~     8        NA <NA>              NA <NA>       <NA>         NA
##  8 Canary~     6        NA <NA>              NA <NA>       <NA>         NA
##  9 French~     5        NA <NA>              NA <NA>       <NA>         NA
## 10 Federa~     4        NA <NA>              NA <NA>       <NA>         NA
## # ... with 11 more rows, and 57 more variables: level <dbl>, type <chr>,
## #   admin <chr>, adm0_a3 <chr>, geou_dif <dbl>, geounit <chr>,
## #   gu_a3 <chr>, su_dif <dbl>, subunit <chr>, su_a3 <chr>, brk_diff <dbl>,
## #   name_long <chr>, brk_a3 <chr>, brk_name <chr>, brk_group <chr>,
## #   abbrev <chr>, postal <chr>, formal_en <chr>, formal_fr <chr>,
## #   note_adm0 <chr>, note_brk <chr>, name_sort <chr>, name_alt <chr>,
## #   mapcolor7 <dbl>, mapcolor8 <dbl>, mapcolor9 <dbl>, mapcolor13 <dbl>,
## #   pop_est <dbl>, gdp_md_est <dbl>, pop_year <dbl>, lastcensus <dbl>,
## #   gdp_year <dbl>, economy <chr>, income_grp <chr>, wikipedia <dbl>,
…
