Global Fishing Watch · Kim Fitter
…
flag: an iso3 value for the flag state of the vessel. Only for vessels that have been matched to registries or have known values.

# Reduce the variables to only required variables
vessels<- vessels %>% 
      select(mmsi, flag, registry_geartype, inferred_geartype, registry_tonnage, inferred_tonnage)

View the vessels count by country.

# Count the vessels by countries 
vessels %>% 
      group_by(flag) %>% 
      count() %>% 
      arrange(desc(n))

## # A tibble: 232 x 2
## # Groups:   flag [232]
##    flag       n
##    <chr>  <int>
##  1 CHN   137089
##  2 USA    25519
##  3 ""     17522
##  4 GBR    17009
##  5 NLD    16465
##  6 DEU    10645
##  7 PAN     9778
##  8 FRA     9316
##  9 NOR     8968
## 10 RUS     6292
## # ... with 222 more rows
…
Summarise the geartypes by count to view the categories.

# Count the vessels by countries 
vessels %>% 
      group_by(geartype) %>% 
      count() %>% 
      arrange(desc(n))

## # A tibble: 231 x 2
## # Groups:   geartype [231]
##    geartype               n
##    <chr>              <int>
##  1 ""                236924
##  2 passenger          48239
##  3 cargo              18185
##  4 tug                11828
##  5 fishing            11640
##  6 tanker             10757
##  7 cargo_or_tanker     9953
##  8 trawlers            5547
##  9 non_fishing         4374
## 10 other_not_fishing   3994
## # ... with 221 more rows
…
Now let’s check the geartypes after cleaning out non fishing geartypes.

# Count the vessels by countries 
vessels %>% 
      group_by(geartype) %>% 
      count() %>% 
      arrange(desc(n))

## # A tibble: 177 x 2
## # Groups:   geartype [177]
##    geartype                             n
##    <chr>                            <int>
##  1 fishing                          11640
##  2 trawlers                          5547
##  3 drifting_longlines                1568
##  4 tuna_purse_seines                  835
##  5 purse_seines                       647
##  6 squid_jigger                       451
##  7 drifting_longlines|set_longlines   405
##  8 set_gillnets                       343
##  9 pole_and_line                      211
## 10 purse_seines|trawlers              208
## # ... with 167 more rows
…
Vessels data

Let’s first take a look at the vessels data using ggplot2, first as a barchart.

# Sort the tonnage_sum
vessels_world_sum %>% 
      arrange(desc(tonnage_sum))

## Simple feature collection with 765 features and 3 fields (with 21 geometries empty)
## geometry type:  MULTIPOLYGON
## dimension:      XY
## bbox:           xmin: -180 ymin: -55.8917 xmax: 180 ymax: 83.59961
## epsg (SRID):    4326
## proj4string:    +proj=longlat +datum=WGS84 +no_defs
## # A tibble: 765 x 4
## # Groups:   flag [114]
##    flag  geartype   tonnage_sum                                    geometry
##    <chr> <chr>            <dbl>                          <MULTIPOLYGON [°]>
##  1 RUS   trawlers      1941954. (((146.0456 43.40933, 146.0323 43.40713, 1~
##  2 CHN   fishing        998685. (((110.8888 19.99194, 110.9383 19.94756, 1~
##  3 NOR   fishing        483235. (((5.08584 60.30757, 5.089063 60.18877, 4.~
##  4 CHN   squid_jig~     435090. (((110.8888 19.99194, 110.9383 19.94756, 1~
##  5 ARG   fishing        380758. (((-64.54917 -54.71621, -64.43882 -54.7393~
##  6 USA   fishing        372312. (((-155.5813 19.01201, -155.6256 18.96392,~
##  7 GBR   trawlers       309395. (((-1.065576 50.69023, -1.149365 50.65571,~
##  8 ESP   trawlers       303893. (((-17.88794 27.80957, -17.98477 27.64639,~
##  9 FRO   fishing        278015. (((-6.699463 61.44463, -6.679688 61.41431,~
## 10 RUS   fish_fact~     277884. (((146.0456 43.40933, 146.0323 43.40713, 1~
## # ... with 755 more rows
…
