Tutorial on Pivot Tables and other Excel things you can also do in R - Witch Trials data · Kim Fitter
…
# Next we will use structure function to view witchdat 
structure(witchdat)

## # A tibble: 10,940 x 12
##     year decade century tried deaths city  gadm.adm2 gadm.adm1 gadm.adm0
##    <int>  <int>   <int> <int>  <int> <chr> <chr>     <chr>     <chr>    
##  1    NA   1520    1500     1      1 <NA>  <NA>      <NA>      Estonia  
##  2    NA   1530    1500     1      1 <NA>  <NA>      <NA>      Estonia  
##  3    NA   1540    1500     5      5 <NA>  <NA>      <NA>      Estonia  
##  4    NA   1580    1500     7      5 <NA>  <NA>      <NA>      Estonia  
##  5    NA   1590    1500    11      0 <NA>  <NA>      <NA>      Estonia  
##  6    NA   1600    1600     6      1 <NA>  <NA>      <NA>      Estonia  
##  7    NA   1610    1600    22     18 <NA>  <NA>      <NA>      Estonia  
##  8    NA   1620    1600    14      8 <NA>  <NA>      <NA>      Estonia  
##  9    NA   1630    1600    25      4 <NA>  <NA>      <NA>      Estonia  
## 10    NA   1640    1600    39     10 <NA>  <NA>      <NA>      Estonia  
## # ... with 10,930 more rows, and 3 more variables: lon <dbl>, lat <dbl>,
## #   record.source <chr>
…
